in/in.test.vcd
$version
    Handwritten v1
$end

$timescale 75ns $end
$var wire 32 ! FIFO $end
$var wire 1 % pin_5 $end

$enddefinitions $end

#0
0%
#1
0%
#2
1%
#3
1%
#4
0%
#5
1%
#6
0%
#7
1%
#8
0%
#9
0%
#10
0%
#11
0%
#12
1%
#13
1%
#14
1%
#15
1%

