in/in.test.vcd
$version
    Handwritten v1
$end

$timescale 75ns $end
$var wire 32 ! FIFO $end
$var wire 1 % pin_5 $end

$enddefinitions $end

#0
0%
0!
#1
0%
#2
1%
3735928559!
#3
1%
#4
0%
0!
#5
1%
3735928559!
#6
0%
0!
#7
1%
#8
0%
#9
0%
3405691582!
#10
0%
#11
0%
#12
1%
#13
1%
0!
#14
1%
#15
1%

